
   97  git clone https://morses@bitbucket.org/morses/inclassdemo.git
   98  ls
   99  cd inclassdemo/
  100  ls
  101  git status
  102  git pull origin master
  103  ls
  104  git status
  105  ls
  106  vi hello.txt 
  107  git status
  108  git add .
  109  git commit -m "great additions to hello"
  110  git status
  111  git push origin master
  112  git log
  113  git pull origin master
  114  ls
  115  cv
  116  ls
  117  cd git
  118  ls
  119  history > wed0926.txt
